{
    "id": "scrpg",
    "title": "Sentinel Comics the Roleplaying Game (Unofficial)",
    "description": "A system for playing Sentinel Comics the Roleplaying Game",
    "authors": [
        {
            "name": "RabidRaccoon"
        },
        {
            "name": "GamerDragon"
        }
    ],
    "version": "1.5.5",
    "compatibility": {
        "minimum": "10",
        "verified": "11",
        "maximum": "11"
    },
    "esmodules": [
        "SCRPG.js"
    ],
    "styles": [
        "dist/SCRPG.css"
    ],
    "packs": [
        {
            "name": "macros",
            "label": "SCRPG Macros",
            "path": "packs/macros.db",
            "type": "Macro"
        }
    ],
    "languages": [
        {
            "lang": "en",
            "name": "English",
            "path": "lang/en.json"
        }
    ],
    "gridDistance": 5,
    "gridUnits": "ft",
    "primaryTokenAttribute": "health",
    "initiative": "N/A",
    "url": "https://gitlab.com/RabidRaccoon/scrpg",
    "manifest": "https://gitlab.com/RabidRaccoon/scrpg/-/raw/main/system.json",
    "download": "https://gitlab.com/RabidRaccoon/scrpg/-/archive/v1.5.5/scrpg-v1.5.5.zip"
}